{
  "/js/radarchart.js": "/js/radarchart.e546802b8cb9f1410012.js",
  "/js/app.js": "/js/app.b49cac902f3fd68edfac.js",
  "/css/app.css": "/css/app.8ffbecc5142f80c53312.css",
  "/js/skills.js": "/js/skills.e975bac5bb2d0cc8066e.js",
  "/js/engineers.js": "/js/engineers.22e8ba6ca02ac31ff2aa.js",
  "/js/dashboard.js": "/js/dashboard.977b96d04b41e551ef36.js",
  "/js/myprofile.js": "/js/myprofile.55c9ccd0a403619faed2.js",
  "/js/skillcatalog.js": "/js/skillcatalog.f647672e1460f27771a4.js",
  "/js/rise.js": "/js/rise.8196a56b38b4957e3a2a.js",
  "/js/adm_positionprofile.js": "/js/adm_positionprofile.240717a76fc3290e3342.js",
  "/js/addskills.js": "/js/addskills.b0d8ffbd9620f152fd12.js",
  "/js/rosechart.js": "/js/rosechart.b7bb2efee50da7c446e0.js",
  "/js/mymorris.js": "/js/mymorris.e64e40e0acda6f24326b.js"
}